<svg width="100" height="100" viewBox="0 0 100 100" fill="none" xmlns="http://www.w3.org/2000/svg">
<circle cx="50" cy="50" r="50" fill="#C5C5C5"/>
<path d="M28.52 66.87C21.8467 66.87 17.2267 65.4233 14.66 62.53C12.8867 60.4767 12 57.6067 12 53.92C12 52.3333 12.1633 50.63 12.49 48.81L15.36 32.71C17.46 20.9033 25.0433 15 38.11 15C43.5233 15 47.63 16.1667 50.43 18.5C53.23 20.7867 54.63 23.9367 54.63 27.95C54.63 29.8167 54.35 31.6833 53.79 33.55C53.2767 35.37 52.7633 36.7233 52.25 37.61L51.48 39.01H39.09C40.63 37.2367 41.4 34.7167 41.4 31.45C41.4 29.7233 40.9567 28.37 40.07 27.39C39.1833 26.3633 37.8767 25.85 36.15 25.85C31.4367 25.85 28.6367 28.4633 27.75 33.69L25.3 47.83C25.0667 49.0433 24.95 50.2333 24.95 51.4C24.95 54.48 26.7933 56.02 30.48 56.02C34.9133 56.02 37.5733 53.5233 38.46 48.53H51.06L50.71 50.56C48.8433 61.4333 41.4467 66.87 28.52 66.87Z" fill="#007ACC"/>
<path d="M63.936 58.712C63.936 59.9494 64.0853 60.8667 64.384 61.464H53.056C52.8 60.44 52.672 59.1174 52.672 57.496C52.672 52.3334 54.4 48.216 57.856 45.144C61.3546 42.0294 66.3466 40.472 72.832 40.472C83.2 40.472 88.384 44.6534 88.384 53.016C88.384 56.0027 87.6586 58.7974 86.208 61.4001C84.7573 63.9601 82.9866 66.0721 80.896 67.736C78.8053 69.3574 76.7146 70.7867 74.624 72.024C72.5333 73.2187 70.72 74.2427 69.184 75.0961C67.648 75.9067 66.816 76.5254 66.688 76.952V77.016H83.776L81.984 87H48.512L49.344 82.264C49.8133 79.576 50.8373 77.1867 52.416 75.0961C53.9946 72.9627 55.7866 71.2987 57.792 70.104C59.7973 68.9094 61.9093 67.736 64.128 66.584C66.3893 65.3894 68.4373 64.344 70.272 63.448C72.1066 62.5094 73.6213 61.3147 74.816 59.864C76.0533 58.4134 76.672 56.792 76.672 55C76.672 51.928 74.944 50.392 71.488 50.392C69.0986 50.392 67.2426 51.16 65.92 52.696C64.5973 54.1894 63.936 56.1947 63.936 58.712Z" fill="#007ACC"/>
</svg>
