<svg fill="none" height="100" viewBox="0 0 100 100" width="100" xmlns="http://www.w3.org/2000/svg">
    <circle cx="50" cy="50" fill="#C5C5C5" r="50" />
    <path
        d="M28.52 66.87C21.8467 66.87 17.2267 65.4233 14.66 62.53C12.8867 60.4767 12 57.6067 12 53.92C12 52.3333 12.1633 50.63 12.49 48.81L15.36 32.71C17.46 20.9033 25.0433 15 38.11 15C43.5233 15 47.63 16.1667 50.43 18.5C53.23 20.7867 54.63 23.9367 54.63 27.95C54.63 29.8167 54.35 31.6833 53.79 33.55C53.2767 35.37 52.7633 36.7233 52.25 37.61L51.48 39.01H39.09C40.63 37.2367 41.4 34.7167 41.4 31.45C41.4 29.7233 40.9567 28.37 40.07 27.39C39.1833 26.3633 37.8767 25.85 36.15 25.85C31.4367 25.85 28.6367 28.4633 27.75 33.69L25.3 47.83C25.0667 49.0433 24.95 50.2333 24.95 51.4C24.95 54.48 26.7933 56.02 30.48 56.02C34.9133 56.02 37.5733 53.5233 38.46 48.53H51.06L50.71 50.56C48.8433 61.4333 41.4467 66.87 28.52 66.87Z"
        fill="#007ACC" />
    <path
        d="M74.576 88H62.992L68.432 57.28C67.408 58.944 65.5306 60.544 62.8 62.08C60.0693 63.616 57.2106 64.384 54.224 64.384L53.392 53.632C57.4026 53.632 61.1573 52.416 64.656 49.984C68.1546 47.5094 70.3093 44.8214 71.12 41.92H82.64L74.576 88Z"
        fill="#007ACC" />
</svg>
